Fertility Data
…
#rename columns
fert1 = fert %>%
  rename('child_disease'= 'Childish diseases' , 'trauma' = 'Accident or serious trauma' , 'surgery' = 'Surgical intervention',  'fever' = 'High fevers in the last year' ,  'alcohol_consumption' = 'Frequency of alcohol consumption' ,  'smoking_frequency' = 'Smoking habit' , 'hours_sitting_daily' = 'Number of hours spent sitting per day' )
fert1

## # A tibble: 100 x 10
##    Season   Age child_disease trauma surgery fever           alcohol_consumption
##    <chr>  <dbl> <chr>         <chr>  <chr>   <chr>           <chr>              
##  1 spring    30 no            yes    yes     more than 3 mo~ once a week        
##  2 spring    35 yes           no     yes     more than 3 mo~ once a week        
##  3 spring    27 yes           no     no      more than 3 mo~ hardly ever or nev~
##  4 spring    32 no            yes    yes     more than 3 mo~ hardly ever or nev~
##  5 spring    30 yes           yes    no      more than 3 mo~ once a week        
##  6 spring    30 yes           no     yes     more than 3 mo~ once a week        
##  7 spring    30 no            no     no      less than 3 mo~ once a week        
##  8 spring    36 yes           yes    yes     more than 3 mo~ several times a we~
##  9 fall      30 no            no     yes     more than 3 mo~ once a week        
## 10 fall      29 yes           no     no      more than 3 mo~ hardly ever or nev~
## # i 90 more rows
## # i 3 more variables: smoking_frequency <chr>, hours_sitting_daily <dbl>,
## #   Diagnosis <chr>
…
  } else {
    fert1$Diagnosis[i] = '1'
  }
}

fert1$child_disease = as.numeric(fert1$child_disease)
fert1$trauma = as.numeric(fert1$trauma)
fert1$surgery = as.numeric(fert1$surgery)
fert1$Diagnosis = as.numeric(fert1$Diagnosis)

#All binary response variables were recoded as 1 being yes, and 0 being no. Diagnosis was recoded as 0 being normal semen and 1 being altered semen.

fert1

## # A tibble: 100 x 10
##    Season   Age child_disease trauma surgery fever           alcohol_consumption
##    <fct>  <dbl>         <dbl>  <dbl>   <dbl> <fct>           <fct>              
##  1 spring    30             0      1       1 more than 3 mo~ once a week        
##  2 spring    35             1      0       1 more than 3 mo~ once a week        
##  3 spring    27             1      0       0 more than 3 mo~ hardly ever or nev~
##  4 spring    32             0      1       1 more than 3 mo~ hardly ever or nev~
##  5 spring    30             1      1       0 more than 3 mo~ once a week        
##  6 spring    30             1      0       1 more than 3 mo~ once a week        
##  7 spring    30             0      0       0 less than 3 mo~ once a week        
##  8 spring    36             1      1       1 more than 3 mo~ several times a we~
##  9 fall      30             0      0       1 more than 3 mo~ once a week        
## 10 fall      29             1      0       0 more than 3 mo~ hardly ever or nev~
## # i 90 more rows
## # i 3 more variables: smoking_frequency <fct>, hours_sitting_daily <dbl>,
## #   Diagnosis <dbl>
…
## # A tibble: 1 x 10
##   Season   Age child_disease trauma surgery fever            alcohol_consumption
##   <fct>  <dbl>         <dbl>  <dbl>   <dbl> <fct>            <fct>              
## 1 spring    30             1      0       1 more than 3 mon~ once a week        
## # i 3 more variables: smoking_frequency <fct>, hours_sitting_daily <dbl>,
## #   Diagnosis <dbl>

#Identifying the outlier.

#Dropping the outlier.
fert2 = subset(fert1,hours_sitting_daily < 300 )
fert2

## # A tibble: 99 x 10
##    Season   Age child_disease trauma surgery fever           alcohol_consumption
##    <fct>  <dbl>         <dbl>  <dbl>   <dbl> <fct>           <fct>              
##  1 spring    30             0      1       1 more than 3 mo~ once a week        
##  2 spring    35             1      0       1 more than 3 mo~ once a week        
##  3 spring    27             1      0       0 more than 3 mo~ hardly ever or nev~
##  4 spring    32             0      1       1 more than 3 mo~ hardly ever or nev~
##  5 spring    30             1      1       0 more than 3 mo~ once a week        
##  6 spring    30             1      0       1 more than 3 mo~ once a week        
##  7 spring    30             0      0       0 less than 3 mo~ once a week        
##  8 spring    36             1      1       1 more than 3 mo~ several times a we~
##  9 fall      30             0      0       1 more than 3 mo~ once a week        
## 10 fall      29             1      0       0 more than 3 mo~ hardly ever or nev~
## # i 89 more rows
## # i 3 more variables: smoking_frequency <fct>, hours_sitting_daily <dbl>,
## #   Diagnosis <dbl>

for (i in 1:length(fert2$hours_sitting_daily)) {
  fert2$hours_sitting_daily[i] = (fert2$hours_sitting_daily[i])/24
  
}

fert3 = fert2 %>% rename("prop_day_sitting" = 'hours_sitting_daily')

fert3

## # A tibble: 99 x 10
##    Season   Age child_disease trauma surgery fever           alcohol_consumption
##    <fct>  <dbl>         <dbl>  <dbl>   <dbl> <fct>           <fct>              
##  1 spring    30             0      1       1 more than 3 mo~ once a week        
##  2 spring    35             1      0       1 more than 3 mo~ once a week        
##  3 spring    27             1      0       0 more than 3 mo~ hardly ever or nev~
##  4 spring    32             0      1       1 more than 3 mo~ hardly ever or nev~
##  5 spring    30             1      1       0 more than 3 mo~ once a week        
##  6 spring    30             1      0       1 more than 3 mo~ once a week        
##  7 spring    30             0      0       0 less than 3 mo~ once a week        
##  8 spring    36             1      1       1 more than 3 mo~ several times a we~
##  9 fall      30             0      0       1 more than 3 mo~ once a week        
## 10 fall      29             1      0       0 more than 3 mo~ hardly ever or nev~
## # i 89 more rows
## # i 3 more variables: smoking_frequency <fct>, prop_day_sitting <dbl>,
## #   Diagnosis <dbl>
…
